{"frames": {

"frame 1.png":
{
	"frame": {"x":1,"y":1,"w":318,"h":318},
	"rotated": false,
	"trimmed": false,
	"spriteSourceSize": {"x":0,"y":0,"w":318,"h":318},
	"sourceSize": {"w":318,"h":318}
},
"frame 2.png":
{
	"frame": {"x":321,"y":1,"w":309,"h":318},
	"rotated": false,
	"trimmed": true,
	"spriteSourceSize": {"x":5,"y":0,"w":309,"h":318},
	"sourceSize": {"w":318,"h":318}
},
"frame 3.png":
{
	"frame": {"x":1194,"y":1,"w":244,"h":318},
	"rotated": false,
	"trimmed": true,
	"spriteSourceSize": {"x":37,"y":0,"w":244,"h":318},
	"sourceSize": {"w":318,"h":318}
},
"frame 4.png":
{
	"frame": {"x":942,"y":1,"w":250,"h":318},
	"rotated": false,
	"trimmed": true,
	"spriteSourceSize": {"x":34,"y":0,"w":250,"h":318},
	"sourceSize": {"w":318,"h":318}
},
"frame 5.png":
{
	"frame": {"x":1440,"y":1,"w":244,"h":318},
	"rotated": false,
	"trimmed": true,
	"spriteSourceSize": {"x":37,"y":0,"w":244,"h":318},
	"sourceSize": {"w":318,"h":318}
},
"frame 6.png":
{
	"frame": {"x":632,"y":1,"w":308,"h":318},
	"rotated": false,
	"trimmed": true,
	"spriteSourceSize": {"x":5,"y":0,"w":308,"h":318},
	"sourceSize": {"w":318,"h":318}
}},
"meta": {
	"app": "http://www.codeandweb.com/texturepacker",
	"version": "1.0",
	"image": "item_r.png",
	"format": "RGBA8888",
	"size": {"w":1685,"h":320},
	"scale": "1",
	"smartupdate": "$TexturePacker:SmartUpdate:7a4a74fbbd1d104d75292141bb2cb59a:c69420393bf79c7cbecf1f2f8c0f9eba:9bec581172654668679f1c7644321f08$"
}
}
