{"frames": {

"part1.png":
{
	"frame": {"x":1,"y":1,"w":3,"h":3},
	"rotated": false,
	"trimmed": false,
	"spriteSourceSize": {"x":0,"y":0,"w":3,"h":3},
	"sourceSize": {"w":3,"h":3}
},
"part2.png":
{
	"frame": {"x":6,"y":1,"w":5,"h":5},
	"rotated": false,
	"trimmed": false,
	"spriteSourceSize": {"x":0,"y":0,"w":5,"h":5},
	"sourceSize": {"w":5,"h":5}
},
"part3.png":
{
	"frame": {"x":13,"y":1,"w":7,"h":7},
	"rotated": false,
	"trimmed": false,
	"spriteSourceSize": {"x":0,"y":0,"w":7,"h":7},
	"sourceSize": {"w":7,"h":7}
},
"part4.png":
{
	"frame": {"x":22,"y":1,"w":7,"h":7},
	"rotated": false,
	"trimmed": false,
	"spriteSourceSize": {"x":0,"y":0,"w":7,"h":7},
	"sourceSize": {"w":7,"h":7}
}},
"meta": {
	"app": "http://www.codeandweb.com/texturepacker",
	"version": "1.0",
	"image": "part_red.png",
	"format": "RGBA8888",
	"size": {"w":30,"h":9},
	"scale": "1",
	"smartupdate": "$TexturePacker:SmartUpdate:6177daa0ed81a98167c27f7b64981fde:d28a7dfa413380e6fe9d3fcb6fbd0e8e:220bb4e98c124d348526f7fb584592ad$"
}
}
